{
  "name": "asusctl-gnome",
  "description": "asusctl-gnome a gnome extension exposing some of the base features of asusd in a helpful and easy to use way",
  "uuid": "asusctl-gnome@asus-linux.org",
  "uuid-dev": "asusctl-gnome-dev@asus-linux.org",
  "settings-schema": "org.gnome.shell.extensions.asusctl-gnome",
  "version": "4.3.2",
  "shell-version": [
    "43", "44"
  ]
}
